Capítulo5 Testes paramétricos para média | Estatística Aplicada à Pesquisa
…
Como exemplo, queremos comparar o escore médio de EPDS (depressão) antes e depois do parto. Seja \(\mu_A\) a média do escore do EPDS antes e seja \(\mu_D\) a média do EPDS depois do parto. Queremos testar as seguintes hipóteses: \(H_0: \mu_A=\mu_D\) versus \(H_0: \mu_A \neq \mu_D\). O teste de hipóteses para a comparação de médias de dois grupos dependentes é conhecido como teste t de amostras pareadas.

Antes de realizar o teste t para amostras pareadas, a distribuição da variável quantitativa nos dois momentos deve seguir uma distribuição normal ou ter um tamanho da amostra grande. Neste último caso, é importante avaliar se há valores atípicos que possam interferir individualmente nas conclusões inferenciais. Para isso, fazemos as seguintes análises exploratórias:

datasummary(grupo~num_contra_ctg*(n+media+dp+mini+medi+maxi), data = dados)

Para fazer um gráfico boxplot de EPDS antes e depois, precisamos arrumar o formato da base de dados. Utilizamos a função gather do pacote tidyr (veja em 3.8.2).

dados_epds <-  gather(data=dados, key ="momento", value = "epds",
                      epds_antes, epds_depois)
dados_epds <- select(dados_epds,id,momento,epds) 
#selecionando só as colunas que vamos utilizar para fazer o grafico
dados_epds

## # A tibble: 208 x 3
##       id momento     epds
##    <dbl> <chr>      <dbl>
##  1     1 epds_antes    20
##  2     2 epds_antes    20
##  3     3 epds_antes     7
##  4     5 epds_antes    10
##  5     6 epds_antes     5
##  6     7 epds_antes     2
##  7     8 epds_antes    12
##  8     9 epds_antes    10
##  9    10 epds_antes     1
## 10    11 epds_antes    10
## # ... with 198 more rows
…
